Bruno Vidigal: <<Land doesn't vote, people do.>> - An Application on 2018 Brazil's Presidential Election
…
Lets start by reading the mapping table from the Github repository.

download.file(url = 'https://raw.githubusercontent.com/betafcc/Municipios-Brasileiros-TSE/master/municipios_brasileiros_tse.csv', 
              destfile = 'data/mapping_tse_ibge.csv')

mapping_tse_ibge <- read_csv('data/mapping_tse_ibge.csv')
mapping_tse_ibge <- mapping_tse_ibge %>% 
  select(codigo_tse, codigo_ibge) %>% 
  mutate(codigo_tse = as.character(str_pad(codigo_tse, 5, pad = '0')),
         codigo_ibge = as.character(codigo_ibge))

mapping_tse_ibge

# A tibble: 5,570 x 2
   codigo_tse codigo_ibge
   <chr>      <chr>      
 1 01120      1200013    
 2 01570      1200054    
 3 01058      1200104    
 4 01007      1200138    
 5 01015      1200179    
 6 01074      1200203    
 7 01112      1200252    
 8 01139      1200302    
 9 01104      1200328    
10 01554      1200344    
#  with 5,560 more rows
…
votes_by_city <- elections_2nd_round %>% 
  filter(!is.na(as.numeric(QT_VOTOS))) %>% 
  group_by(NM_MUNICIPIO, CD_MUNICIPIO, `SG_ UF`, NM_VOTAVEL, DS_CARGO_PERGUNTA) %>% 
  summarise(votes_total = sum(as.numeric(QT_VOTOS))) %>% 
  filter(DS_CARGO_PERGUNTA == 'Presidente' & `SG_ UF` != 'ZZ') %>% ## ZZ means votes abroad 
  spread(NM_VOTAVEL, votes_total) %>% 
  mutate(valid_votes = `FERNANDO HADDAD` + `JAIR BOLSONARO`,
         perc_bolsonaro = `JAIR BOLSONARO`/valid_votes) %>% 
  left_join(mapping_tse_ibge, by = c("CD_MUNICIPIO" = "codigo_tse")) %>% 
  ungroup() %>% 
  select(codigo_ibge, valid_votes, perc_bolsonaro)

votes_by_city

# A tibble: 5,570 x 3
   codigo_ibge valid_votes perc_bolsonaro
   <chr>             <dbl>          <dbl>
 1 2100055           53238          0.515
 2 5200050            6213          0.690
 3 3100104            3938          0.538
 4 5200100            6985          0.745
 5 3100203           11870          0.639
 6 1500107           81542          0.244
 7 2300101            5346          0.127
 8 2900207            9530          0.218
 9 2900108            4436          0.393
10 4100103            4513          0.608
#  with 5,560 more rows
…
